project2/code/rv32cpu.vcd
$date
	Sun Dec 30 15:18:59 2018
$end
$version
	Icarus Verilog
$end
$timescale
	1s
$end
$scope module TestBench $end
$var wire 256 ! mem_cpu_data [255:0] $end
$var wire 1 " mem_cpu_ack $end
$var wire 1 # cpu_mem_write $end
$var wire 1 $ cpu_mem_enable $end
$var wire 256 % cpu_mem_data [255:0] $end
$var wire 32 & cpu_mem_addr [31:0] $end
$var reg 1 ' Clk $end
$var reg 1 ( Reset $end
$var reg 1 ) Start $end
$var reg 27 * address [26:0] $end
$var reg 1 + flag $end
$var reg 5 , index [4:0] $end
$var reg 24 - tag [23:0] $end
$var integer 32 . counter [31:0] $end
$var integer 32 / i [31:0] $end
$var integer 32 0 outfile [31:0] $end
$var integer 32 1 outfile2 [31:0] $end
$scope module CPU $end
$var wire 1 ' clk_i $end
$var wire 1 ( rst_i $end
$var wire 1 ) start_i $end
$var wire 1 2 tmp_RegWrite $end
$var wire 32 3 tmp_Immediate [31:0] $end
$var wire 1 # mem_write_o $end
$var wire 1 $ mem_enable_o $end
$var wire 256 4 mem_data_o [255:0] $end
$var wire 256 5 mem_data_i [255:0] $end
$var wire 32 6 mem_addr_o [31:0] $end
$var wire 1 " mem_ack_i $end
$var reg 32 7 Immediate [31:0] $end
$var reg 1 8 RegWrite $end
$scope module ALU $end
$var wire 32 9 data2_i [31:0] $end
$var wire 32 : data1_i [31:0] $end
$var wire 4 ; control [3:0] $end
$var reg 32 < data_o [31:0] $end
$var reg 1 = zero_o $end
$upscope $end
$scope module Adder_Branch $end
$var wire 32 > data2_i [31:0] $end
$var wire 32 ? data_o [31:0] $end
$var wire 32 @ data1_i [31:0] $end
$scope module Adder $end
$var wire 32 A data2_i [31:0] $end
$var wire 32 B data_o [31:0] $end
$var wire 32 C data1_i [31:0] $end
$upscope $end
$upscope $end
$scope module Adder_PC $end
$var wire 32 D data2_i [31:0] $end
$var wire 32 E data_o [31:0] $end
$var wire 32 F data1_i [31:0] $end
$upscope $end
$scope module Branch_Detection_Unit $end
$var wire 1 G data_o $end
$var wire 32 H data2_i [31:0] $end
$var wire 32 I data1_i [31:0] $end
$var wire 4 J control_i [3:0] $end
$upscope $end
$scope module Control $end
$var wire 10 K funct_i [9:0] $end
$var wire 7 L opcode_i [6:0] $end
$var reg 4 M data_o [3:0] $end
$upscope $end
$scope module EXMEM $end
$var wire 32 N ALUResult_i [31:0] $end
$var wire 1 ' clk_i $end
$var wire 1 O stall_i $end
$var wire 4 P control_i [3:0] $end
$var wire 32 Q RS2data_i [31:0] $end
$var wire 5 R RDaddr_i [4:0] $end
$var reg 32 S ALUResult_o [31:0] $end
$var reg 5 T RDaddr_o [4:0] $end
$var reg 32 U RS2data_o [31:0] $end
$var reg 4 V control_o [3:0] $end
$upscope $end
$scope module Forwarding_Unit $end
$var wire 5 W EXMEM_RDaddr_i [4:0] $end
$var wire 1 X EXMEM_RegWrite_i $end
$var wire 1 Y MEMWB_RegWrite_i $end
$var wire 5 Z MEMWB_RDaddr_i [4:0] $end
$var wire 5 [ IDEX_RS2addr_i [4:0] $end
$var wire 5 \ IDEX_RS1addr_i [4:0] $end
$var reg 2 ] ForwardA_o [1:0] $end
$var reg 2 ^ ForwardB_o [1:0] $end
$upscope $end
$scope module Hazard_Detection_Unit $end
$var wire 1 _ IDEX_MemRead_i $end
$var wire 5 ` IFID_RS2addr_i [4:0] $end
$var wire 5 a IFID_RS1addr_i [4:0] $end
$var wire 5 b IDEX_RDaddr_i [4:0] $end
$var wire 1 c IDEX_MemRead $end
$var reg 1 d hazard_o $end
$upscope $end
$scope module IDEX $end
$var wire 1 ' clk_i $end
$var wire 4 e control_i [3:0] $end
$var wire 1 d hazard_i $end
$var wire 32 f immediate_i [31:0] $end
$var wire 1 O stall_i $end
$var wire 32 g RS2data_i [31:0] $end
$var wire 5 h RS2addr_i [4:0] $end
$var wire 32 i RS1data_i [31:0] $end
$var wire 5 j RS1addr_i [4:0] $end
$var wire 5 k RDaddr_i [4:0] $end
$var reg 5 l RDaddr_o [4:0] $end
$var reg 5 m RS1addr_o [4:0] $end
$var reg 32 n RS1data_o [31:0] $end
$var reg 5 o RS2addr_o [4:0] $end
$var reg 32 p RS2data_o [31:0] $end
$var reg 4 q control_o [3:0] $end
$var reg 32 r immediate_o [31:0] $end
$upscope $end
$scope module IFID $end
$var wire 1 G branch_i $end
$var wire 1 ' clk_i $end
$var wire 1 d hazard_i $end
$var wire 1 O stall_i $end
$var wire 32 s pc_i [31:0] $end
$var wire 32 t inst_i [31:0] $end
$var reg 32 u inst_o [31:0] $end
$var reg 32 v pc_o [31:0] $end
$upscope $end
$scope module Immediate_Generator $end
$var wire 32 w instr_i [31:0] $end
$var reg 32 x data_o [31:0] $end
$var reg 20 y extend_bits [19:0] $end
$upscope $end
$scope module Instruction_Memory $end
$var wire 32 z inst_o [31:0] $end
$var wire 32 { addr_i [31:0] $end
$upscope $end
$scope module MEMWB $end
$var wire 32 | ALUResult_i [31:0] $end
$var wire 5 } RDaddr_i [4:0] $end
$var wire 1 ' clk_i $end
$var wire 4 ~ control_i [3:0] $end
$var wire 1 O stall_i $end
$var wire 32 !" memData_i [31:0] $end
$var reg 5 "" RDaddr_o [4:0] $end
$var reg 1 2 RegWrite_o $end
$var reg 32 #" WB_Data_o [31:0] $end
$var reg 4 $" control_o [3:0] $end
$upscope $end
$scope module MUX_ALU_Src $end
$var wire 32 %" data2_i [31:0] $end
$var wire 1 &" select_i $end
$var wire 32 '" data1_i [31:0] $end
$var reg 32 (" data_o [31:0] $end
$upscope $end
$scope module MUX_ForwardA $end
$var wire 32 )" data1_i [31:0] $end
$var wire 32 *" data2_i [31:0] $end
$var wire 32 +" data3_i [31:0] $end
$var wire 2 ," select_i [1:0] $end
$var reg 32 -" data_o [31:0] $end
$upscope $end
$scope module MUX_ForwardB $end
$var wire 32 ." data1_i [31:0] $end
$var wire 32 /" data2_i [31:0] $end
$var wire 32 0" data3_i [31:0] $end
$var wire 2 1" select_i [1:0] $end
$var reg 32 2" data_o [31:0] $end
$upscope $end
$scope module MUX_PC $end
$var wire 32 3" data1_i [31:0] $end
$var wire 32 4" data2_i [31:0] $end
$var wire 1 G select_i $end
$var reg 32 5" data_o [31:0] $end
$upscope $end
$scope module PC $end
$var wire 1 ' clk_i $end
$var wire 1 d hazard_i $end
$var wire 32 6" pc_i [31:0] $end
$var wire 1 ( rst_i $end
$var wire 1 ) start_i $end
$var wire 1 O stall_i $end
$var reg 32 7" pc_o [31:0] $end
$upscope $end
$scope module Registers $end
$var wire 5 8" RDaddr_i [4:0] $end
$var wire 32 9" RDdata_i [31:0] $end
$var wire 5 :" RS1addr_i [4:0] $end
$var wire 5 ;" RS2addr_i [4:0] $end
$var wire 1 8 RegWrite_i $end
$var wire 1 ' clk_i $end
$var wire 32 <" RS2data_o [31:0] $end
$var wire 32 =" RS1data_o [31:0] $end
$upscope $end
$scope module dcache $end
$var wire 1 >" cache_dirty $end
$var wire 1 ?" cache_sram_enable $end
$var wire 5 @" cache_sram_index [4:0] $end
$var wire 1 A" cache_sram_write $end
$var wire 1 ' clk_i $end
$var wire 256 B" mem_data_o [255:0] $end
$var wire 1 $ mem_enable_o $end
$var wire 1 # mem_write_o $end
$var wire 1 C" p1_MemRead_i $end
$var wire 1 D" p1_MemWrite_i $end
$var wire 32 E" p1_addr_i [31:0] $end
$var wire 32 F" p1_data_i [31:0] $end
$var wire 32 G" p1_data_o [31:0] $end
$var wire 1 H" p1_req $end
$var wire 1 O p1_stall_o $end
$var wire 1 ( rst_i $end
$var wire 1 I" write_hit $end
$var wire 1 J" sram_valid $end
$var wire 22 K" sram_tag [21:0] $end
$var wire 1 L" sram_dirty $end
$var wire 24 M" sram_cache_tag [23:0] $end
$var wire 256 N" sram_cache_data [255:0] $end
$var wire 256 O" r_hit_data [255:0] $end
$var wire 22 P" p1_tag [21:0] $end
$var wire 5 Q" p1_offset [4:0] $end
$var wire 5 R" p1_index [4:0] $end
$var wire 256 S" mem_data_i [255:0] $end
$var wire 32 T" mem_addr_o [31:0] $end
$var wire 1 " mem_ack_i $end
$var wire 1 U" hit $end
$var wire 24 V" cache_sram_tag [23:0] $end
$var wire 256 W" cache_sram_data [255:0] $end
$var reg 1 X" cache_we $end
$var reg 1 Y" mem_enable $end
$var reg 1 Z" mem_write $end
$var reg 32 [" p1_data [31:0] $end
$var reg 3 \" state [2:0] $end
$var reg 256 ]" w_hit_data [255:0] $end
$var reg 1 ^" write_back $end
$scope module dcache_data_sram $end
$var wire 5 _" addr_i [4:0] $end
$var wire 1 ' clk_i $end
$var wire 256 `" data_i [255:0] $end
$var wire 1 ?" enable_i $end
$var wire 1 A" write_i $end
$var wire 256 a" data_o [255:0] $end
$upscope $end
$scope module dcache_tag_sram $end
$var wire 5 b" addr_i [4:0] $end
$var wire 1 ' clk_i $end
$var wire 24 c" data_i [23:0] $end
$var wire 1 ?" enable_i $end
$var wire 1 A" write_i $end
$var wire 24 d" data_o [23:0] $end
$upscope $end
$upscope $end
$upscope $end
$scope module Data_Memory $end
$var wire 1 e" ack $end
$var wire 1 " ack_o $end
$var wire 32 f" addr_i [31:0] $end
$var wire 1 ' clk_i $end
$var wire 256 g" data_i [255:0] $end
$var wire 256 h" data_o [255:0] $end
$var wire 1 $ enable_i $end
$var wire 1 ( rst_i $end
$var wire 1 # write_i $end
$var wire 27 i" addr [26:0] $end
$var reg 4 j" count [3:0] $end
$var reg 256 k" data [255:0] $end
$var reg 2 l" state [1:0] $end
$var reg 1 m" write_reg $end
$upscope $end
$upscope $end
$enddefinitions $end
#0
$dumpvars
0m"
b0 l"
bx k"
b0 j"
bx i"
bx h"
b0 g"
bx00000 f"
0e"
b0 d"
b10xxxxxxxxxxxxxxxxxxxxxx c"
bx b"
b0 a"
bx `"
bx _"
0^"
bx ]"
b0 \"
bx ["
0Z"
0Y"
0X"
bx W"
b10xxxxxxxxxxxxxxxxxxxxxx V"
0U"
bx00000 T"
bx S"
bx R"
bx Q"
bx P"
bx O"
b0 N"
b0 M"
0L"
b0 K"
0J"
0I"
0H"
bx G"
bx F"
bx E"
0D"
0C"
b0 B"
0A"
bx @"
0?"
0>"
bx ="
bx <"
bx ;"
bx :"
bx 9"
bx 8"
b0 7"
b100 6"
b100 5"
bx 4"
b100 3"
bx 2"
b0 1"
bx 0"
bx /"
bx ."
bx -"
b0 ,"
bx +"
bx *"
bx )"
bx ("
bx '"
0&"
b0 %"
bx $"
bx #"
bx ""
bx !"
bx ~
bx }
bx |
b0 {
b10000010011 z
bx y
bx x
bx w
bx v
bx u
b10000010011 t
b0 s
b0 r
bx q
bx p
bx o
bx n
bx m
bx l
bx k
bx j
bx i
bx h
bx g
b0 f
bx e
0d
0c
bx b
bx a
bx `
0_
b0 ^
b0 ]
bx \
bx [
bx Z
1Y
1X
bx W
bx V
bx U
bx T
bx S
bx R
bx Q
bx P
0O
bx N
bx M
bx L
bx K
bx J
bx I
bx H
0G
b0 F
b100 E
b100 D
bx C
bx B
b0 A
bx @
bx ?
b0 >
x=
bx <
bx ;
bx :
bx 9
08
b0 7
bx00000 6
bx 5
b0 4
bx 3
02
b101 1
b11 0
b100000 /
b1 .
bx -
bx ,
x+
bx *
0)
0(
1'
bx00000 &
b0 %
0$
0#
0"
bx !
$end
#12
1)
1(
#25
0'
#50
b100000000010000000100011 t
b100000000010000000100011 z
b1000 5"
b1000 6"
b1000 E
b1000 3"
b100 F
b100 s
b100 {
b100 7"
b101 J
b101 M
b101 e
b0 I
b0 i
b0 ="
b0 H
b0 g
b0 <"
b0 K
b10011 L
b0 :"
b0 ;"
b0 a
b0 `
b0 j
b0 h
b1000 k
b0 3
b0 x
b0 y
b10 .
0+
b10000010011 u
b10000010011 w
b0 ?
b0 4"
b0 B
b0 @
b0 C
b0 v
1'
#75
0'
#100
b0 <
b0 N
b0 9
b0 ("
1&"
b0 Q
b0 '"
b0 2"
b0 :
b0 -"
b10001000100000000010000010011 t
b10001000100000000010000010011 z
b1100 5"
b1100 6"
b1000 R
b1000 b
b1000 l
b0 [
b0 o
b0 \
b0 m
b0 p
b0 ."
b0 n
b0 )"
b101 ;
b101 P
b101 q
b1100 E
b1100 3"
b1000 F
b1000 s
b1000 {
b1000 7"
b111 J
b111 M
b111 e
b10 K
b100011 L
b1000 ;"
b1000 `
b1000 h
b0 k
b100000000010000000100011 u
b100000000010000000100011 w
b100 ?
b100 4"
b100 B
b100 @
b100 C
b100 v
b11 .
1'
#125
0'
#150
b0 i"
b0 !"
b0 G"
b0 ["
b0 &
b0 6
b0 T"
b0 f"
b1000100010 A
bx00000000000000000000000000000000 ]"
b0 Q"
b0 @"
b0 _"
b0 b"
b0 R"
b100000000000000000000000 V"
b100000000000000000000000 c"
b0 P"
b10 ^
b10 1"
b100000000010001000100011 t
b100000000010001000100011 z
b10000 5"
b10000 6"
b100010001 7
b100010001 >
b100010001 f
b1000 T
b1000 W
b1000 }
b0 U
b0 F"
b0 S
b0 |
b0 +"
b0 0"
b0 E"
b101 V
b101 ~
b0 R
b0 b
b0 l
b1000 [
b1000 o
b111 ;
b111 P
b111 q
b10000 E
b10000 3"
b1100 F
b1100 s
b1100 {
b1100 7"
b101 J
b101 M
b101 e
b1000000 K
b10011 L
b10001 ;"
b10001 `
b10001 h
b1000 k
b100010001 3
b100010001 x
b100 .
b10001000100000000010000010011 u
b10001000100000000010000010011 w
b1000101010 ?
b1000101010 4"
b1000101010 B
b1000 @
b1000 C
b1000 v
1'
#175
0'
#200
18
b100010001 <
b100010001 N
1O
b1000 A
b100010001 9
b100010001 ("
1?"
1H"
0X
b0 ^
b0 1"
b0 ]
b0 ,"
b100010001000000000010000010011 t
b100010001000000000010000010011 z
b10100 5"
b10100 6"
b100 7
b100 >
b100 f
b1000 R
b1000 b
b1000 l
b10001 [
b10001 o
b100010001 r
b100010001 %"
b101 ;
b101 P
b101 q
b0 T
b0 W
b0 }
1D"
b111 V
b111 ~
12
b1000 Z
b1000 ""
b1000 8"
b0 #"
b0 *"
b0 /"
b0 9"
b101 $"
b10100 E
b10100 3"
b10000 F
b10000 s
b10000 {
b10000 7"
b111 J
b111 M
b111 e
b10 K
b100011 L
b1000 ;"
b1000 `
b1000 h
b100 k
b100 3
b100 x
b100000000010001000100011 u
b100000000010001000100011 w
b10100 ?
b10100 4"
b10100 B
b1100 @
b1100 C
b1100 v
b101 .
1'
#225
0'
#250
b100 \"
b110 .
1+
1'
#275
0'
#300
b1 \"
1$
1Y"
b111 .
1'
#325
0'
#350
b1 l"
b1000 .
1'
#375
0'
#400
b1 j"
b1001 .
1'
#425
0'
#450
b10 j"
b1010 .
1'
#475
0'
#500
b11 j"
b1011 .
1'
#525
0'
#550
b100 j"
b1100 .
1'
#575
0'
#600
b101 j"
b1101 .
1'
#625
0'
#650
b110 j"
b1110 .
1'
#675
0'
#700
b111 j"
b1111 .
1'
#725
0'
#750
b1000 j"
b10000 .
1'
#775
0'
#800
1"
1e"
b1001 j"
b10001 .
1'
#825
0'
#850
0"
0e"
1A"
b1010 j"
b0 l"
b10 \"
1X"
0$
0Y"
b0 ]"
b101 O"
b101 W"
b101 `"
b10010 .
b101 !
b101 5
b101 S"
b101 h"
b101 k"
1'
#875
0'
#900
0O
b0 W"
b0 `"
b110000000000000000000000 V"
b110000000000000000000000 c"
1>"
1I"
1U"
1J"
b100000000000000000000000 M"
b100000000000000000000000 d"
b101 %
b101 4
b101 B"
b101 g"
b101 N"
b101 a"
1A"
b0 j"
b0 \"
0X"
b10011 .
1'
#925
0'
#950
08
0U"
b1000 i"
b101 W"
b101 `"
b100010001 Q
b100010001 '"
b100010001 2"
b101 O"
0J"
b101 ]"
b100000000 &
b100000000 6
b100000000 T"
b100000000 f"
0A"
b10 ^
b10 1"
b100 <
b100 N
b10001000100 A
0Y
b0 %
b0 4
b0 B"
b0 g"
b0 N"
b0 a"
b0 M"
b0 d"
b10001 Q"
b1000 @"
b1000 _"
b1000 b"
b1000 R"
0?"
0H"
b100000000000000000000000 V"
b100000000000000000000000 c"
0>"
0I"
1X
b0 ]
b0 ,"
b100 9
b100 ("
b100000000010010000100011 t
b100000000010010000100011 z
b11000 5"
b11000 6"
b1000100010 7
b1000100010 >
b1000100010 f
02
b0 Z
b0 ""
b0 8"
b111 $"
b1000 T
b1000 W
b1000 }
b100010001 S
b100010001 |
b100010001 +"
b100010001 0"
b100010001 E"
0D"
b101 V
b101 ~
b100 R
b100 b
b100 l
b1000 [
b1000 o
b100 r
b100 %"
b111 ;
b111 P
b111 q
b11000 E
b11000 3"
b10100 F
b10100 s
b10100 {
b10100 7"
b101 J
b101 M
b101 e
b10001000 K
b10011 L
b10 ;"
b10 `
b10 h
b1000 k
b1000100010 3
b1000100010 x
b10100 .
0+
b100010001000000000010000010011 u
b100010001000000000010000010011 w
b10001010100 ?
b10001010100 4"
b10001010100 B
b10000 @
b10000 C
b10000 v
1'
#975
0'
#1000
b100010001 H
b100010001 g
b100010001 <"
18
1A"
b0 O"
b10001000100000000000000000000000000000000 W"
b10001000100000000000000000000000000000000 `"
b110000000000000000000000 V"
b110000000000000000000000 c"
1>"
1I"
1U"
b0 i"
1L"
1J"
b1000100010 <
b1000100010 N
b0 &
b0 6
b0 T"
b0 f"
0O
b110000000000000000000000 M"
b110000000000000000000000 d"
b10000 A
b1000100010 9
b1000100010 ("
b10001000100000000000000000000000000000000 ]"
b100 Q"
b0 @"
b0 _"
b0 b"
b0 R"
1?"
1H"
0X
b0 ^
b0 1"
b0 Q
b0 '"
b0 2"
1Y
b110011001100000000010000010011 t
b110011001100000000010000010011 z
b11100 5"
b11100 6"
b1000 7
b1000 >
b1000 f
b1000 R
b1000 b
b1000 l
b10 [
b10 o
b1000100010 r
b1000100010 %"
b101 ;
b101 P
b101 q
b100 T
b100 W
b100 }
b100010001 U
b100010001 F"
b100 S
b100 |
b100 +"
b100 0"
b100 E"
1D"
b111 V
b111 ~
12
b1000 Z
b1000 ""
b1000 8"
b100010001 #"
b100010001 *"
b100010001 /"
b100010001 9"
b101 $"
b11100 E
b11100 3"
b11000 F
b11000 s
b11000 {
b11000 7"
b111 J
b111 M
b111 e
b10 K
b100011 L
b1000 ;"
b1000 `
b1000 h
b1000 3
b1000 x
b100000000010010000100011 u
b100000000010010000100011 w
b100100 ?
b100100 4"
b100100 B
b10100 @
b10100 C
b10100 v
b10101 .
1'
#1025
0'
#1050
08
b101 O"
0U"
b10001 i"
0L"
0J"
b101 W"
b101 `"
b1000100000 &
b1000100000 6
b1000100000 T"
b1000100000 f"
b0 M"
b0 d"
0A"
b10 ^
b10 1"
b1000 <
b1000 N
b11001100110 A
0Y
b101 ]"
b10 Q"
b10001 @"
b10001 _"
b10001 b"
b10001 R"
0?"
0H"
b100000000000000000000000 V"
b100000000000000000000000 c"
0>"
0I"
1X
b1000 9
b1000 ("
b1000100010 Q
b1000100010 '"
b1000100010 2"
b100000000010011000100011 t
b100000000010011000100011 z
b100000 5"
b100000 6"
b1100110011 7
b1100110011 >
b1100110011 f
02
b100 Z
b100 ""
b100 8"
b100 #"
b100 *"
b100 /"
b100 9"
b111 $"
b1000 T
b1000 W
b1000 }
b0 U
b0 F"
b1000100010 S
b1000100010 |
b1000100010 +"
b1000100010 0"
b1000100010 E"
0D"
b101 V
b101 ~
b1000 [
b1000 o
b1000 r
b1000 %"
b100010001 p
b100010001 ."
b111 ;
b111 P
b111 q
b100000 E
b100000 3"
b11100 F
b11100 s
b11100 {
b11100 7"
b0 H
b0 g
b0 <"
b101 J
b101 M
b101 e
b11001000 K
b10011 L
b10011 ;"
b10011 `
b10011 h
b1100110011 3
b1100110011 x
b10110 .
b110011001100000000010000010011 u
b110011001100000000010000010011 w
b11001111110 ?
b11001111110 4"
b11001111110 B
b11000 @
b11000 C
b11000 v
1'
#1075
0'
#1100
18
1A"
b10001000100000000000000000000000000000000 O"
b10001000100000000000000000000000010001000100000000000000000000000000000000 W"
b10001000100000000000000000000000010001000100000000000000000000000000000000 `"
b110000000000000000000000 V"
b110000000000000000000000 c"
1>"
1I"
1U"
b0 i"
1L"
1J"
b1100110011 <
b1100110011 N
b0 &
b0 6
b0 T"
b0 f"
0O
b10001000100000000000000000000000000000000 %
b10001000100000000000000000000000000000000 4
b10001000100000000000000000000000000000000 B"
b10001000100000000000000000000000000000000 g"
b10001000100000000000000000000000000000000 N"
b10001000100000000000000000000000000000000 a"
b110000000000000000000000 M"
b110000000000000000000000 d"
b11000 A
b1100110011 9
b1100110011 ("
b10001000100000000000000000000000010001000100000000000000000000000000000000 ]"
b1000 Q"
b0 @"
b0 _"
b0 b"
b0 R"
1?"
1H"
0X
b0 ^
b0 1"
b0 Q
b0 '"
b0 2"
1Y
b1000100010000000000010000010011 t
b1000100010000000000010000010011 z
b100100 5"
b100100 6"
b1100 7
b1100 >
b1100 f
b10011 [
b10011 o
b1100110011 r
b1100110011 %"
b0 p
b0 ."
b101 ;
b101 P
b101 q
b1000100010 U
b1000100010 F"
b1000 S
b1000 |
b1000 +"
b1000 0"
b1000 E"
1D"
b111 V
b111 ~
12
b1000 Z
b1000 ""
b1000 8"
b1000100010 #"
b1000100010 *"
b1000100010 /"
b1000100010 9"
b101 $"
b100100 E
b100100 3"
b100000 F
b100000 s
b100000 {
b100000 7"
b111 J
b111 M
b111 e
b1000100010 H
b1000100010 g
b1000100010 <"
b10 K
b100011 L
b1000 ;"
b1000 `
b1000 h
b1100 k
b1100 3
b1100 x
b100000000010011000100011 u
b100000000010011000100011 w
b110100 ?
b110100 4"
b110100 B
b11100 @
b11100 C
b11100 v
b10111 .
1'
#1125
0'
#1150
08
0U"
b11001 i"
0L"
0J"
b101 O"
b101 W"
b101 `"
b1100100000 &
b1100100000 6
b1100100000 T"
b1100100000 f"
b0 M"
b0 d"
0A"
b1100 <
b1100 N
b100010001000 A
0Y
b0 %
b0 4
b0 B"
b0 g"
b0 N"
b0 a"
b101 ]"
b10011 Q"
b11001 @"
b11001 _"
b11001 b"
b11001 R"
0?"
0H"
b100000000000000000000000 V"
b100000000000000000000000 c"
0>"
0I"
1X
b10 ^
b10 1"
b1100 9
b1100 ("
b1100110011 Q
b1100110011 '"
b1100110011 2"
b100000000010100000100011 t
b100000000010100000100011 z
b101000 5"
b101000 6"
b10001000100 7
b10001000100 >
b10001000100 f
02
b1000 #"
b1000 *"
b1000 /"
b1000 9"
b111 $"
b0 U
b0 F"
b1100110011 S
b1100110011 |
b1100110011 +"
b1100110011 0"
b1100110011 E"
0D"
b101 V
b101 ~
b1100 R
b1100 b
b1100 l
b1000 [
b1000 o
b1100 r
b1100 %"
b1000100010 p
b1000100010 ."
b111 ;
b111 P
b111 q
b101000 E
b101000 3"
b100100 F
b100100 s
b100100 {
b100100 7"
b0 H
b0 g
b0 <"
b101 J
b101 M
b101 e
b100010000 K
b10011 L
b100 ;"
b100 `
b100 h
b1000 k
b10001000100 3
b10001000100 x
b11000 .
b1000100010000000000010000010011 u
b1000100010000000000010000010011 w
b100010101000 ?
b100010101000 4"
b100010101000 B
b100000 @
b100000 C
b100000 v
1'
#1175
0'
#1200
18
1A"
b10001000100000000000000000000000010001000100000000000000000000000000000000 O"
b1100110011000000000000000000000010001000100000000000000000000000010001000100000000000000000000000000000000 W"
b1100110011000000000000000000000010001000100000000000000000000000010001000100000000000000000000000000000000 `"
b110000000000000000000000 V"
b110000000000000000000000 c"
1>"
1I"
1U"
b0 i"
1L"
1J"
b10001000100 <
b10001000100 N
b0 &
b0 6
b0 T"
b0 f"
0O
b10001000100000000000000000000000010001000100000000000000000000000000000000 %
b10001000100000000000000000000000010001000100000000000000000000000000000000 4
b10001000100000000000000000000000010001000100000000000000000000000000000000 B"
b10001000100000000000000000000000010001000100000000000000000000000000000000 g"
b10001000100000000000000000000000010001000100000000000000000000000000000000 N"
b10001000100000000000000000000000010001000100000000000000000000000000000000 a"
b110000000000000000000000 M"
b110000000000000000000000 d"
b100000 A
b10001000100 9
b10001000100 ("
b0 ^
b0 1"
b1100110011000000000000000000000010001000100000000000000000000000010001000100000000000000000000000000000000 ]"
b1100 Q"
b0 @"
b0 _"
b0 b"
b0 R"
1?"
1H"
0X
b0 Q
b0 '"
b0 2"
1Y
b1010101010100000000010000010011 t
b1010101010100000000010000010011 z
b101100 5"
b101100 6"
b10000 7
b10000 >
b10000 f
b1000 R
b1000 b
b1000 l
b100 [
b100 o
b10001000100 r
b10001000100 %"
b0 p
b0 ."
b101 ;
b101 P
b101 q
b1100 T
b1100 W
b1100 }
b1100110011 U
b1100110011 F"
b1100 S
b1100 |
b1100 +"
b1100 0"
b1100 E"
1D"
b111 V
b111 ~
12
b1100110011 #"
b1100110011 *"
b1100110011 /"
b1100110011 9"
b101 $"
b101100 E
b101100 3"
b101000 F
b101000 s
b101000 {
b101000 7"
b111 J
b111 M
b111 e
b1100110011 H
b1100110011 g
b1100110011 <"
b10 K
b100011 L
b1000 ;"
b1000 `
b1000 h
b10000 k
b10000 3
b10000 x
b100000000010100000100011 u
b100000000010100000100011 w
b1000100 ?
b1000100 4"
b1000100 B
b100100 @
b100100 C
b100100 v
b11001 .
1'
#1225
0'
#1250
08
b100010 i"
0U"
0L"
0J"
b101 O"
b101 W"
b101 `"
b0 !"
b0 G"
b0 ["
b10001000000 &
b10001000000 6
b10001000000 T"
b10001000000 f"
b0 M"
b0 d"
0A"
b10 ^
b10 1"
b10000 <
b10000 N
b101010101010 A
0Y
b0 %
b0 4
b0 B"
b0 g"
b0 N"
b0 a"
b101 ]"
b100 Q"
b10 @"
b10 _"
b10 b"
b10 R"
b1 P"
0?"
0H"
b100000000000000000000001 V"
b100000000000000000000001 c"
0>"
0I"
1X
b10000 9
b10000 ("
b10001000100 Q
b10001000100 '"
b10001000100 2"
b100000000010101000100011 t
b100000000010101000100011 z
b110000 5"
b110000 6"
b10101010101 7
b10101010101 >
b10101010101 f
02
b1100 Z
b1100 ""
b1100 8"
b1100 #"
b1100 *"
b1100 /"
b1100 9"
b111 $"
b1000 T
b1000 W
b1000 }
b0 U
b0 F"
b10001000100 S
b10001000100 |
b10001000100 +"
b10001000100 0"
b10001000100 E"
0D"
b101 V
b101 ~
b10000 R
b10000 b
b10000 l
b1000 [
b1000 o
b10000 r
b10000 %"
b1100110011 p
b1100110011 ."
b111 ;
b111 P
b111 q
b110000 E
b110000 3"
b101100 F
b101100 s
b101100 {
b101100 7"
b0 H
b0 g
b0 <"
b101 J
b101 M
b101 e
b101010000 K
b10011 L
b10101 ;"
b10101 `
b10101 h
b1000 k
b10101010101 3
b10101010101 x
b11010 .
b1010101010100000000010000010011 u
b1010101010100000000010000010011 w
b101011010010 ?
b101011010010 4"
b101011010010 B
b101000 @
b101000 C
b101000 v
1'
#1275
0'
#1300
18
1A"
b1100110011000000000000000000000010001000100000000000000000000000010001000100000000000000000000000000000000 O"
b1000100010000000000000000000000001100110011000000000000000000000010001000100000000000000000000000010001000100000000000000000000000000000000 W"
b1000100010000000000000000000000001100110011000000000000000000000010001000100000000000000000000000010001000100000000000000000000000000000000 `"
1>"
1I"
1U"
b0 i"
1L"
1J"
b10101010101 <
b10101010101 N
b0 &
b0 6
b0 T"
b0 f"
0O
b1100110011000000000000000000000010001000100000000000000000000000010001000100000000000000000000000000000000 %
b1100110011000000000000000000000010001000100000000000000000000000010001000100000000000000000000000000000000 4
b1100110011000000000000000000000010001000100000000000000000000000010001000100000000000000000000000000000000 B"
b1100110011000000000000000000000010001000100000000000000000000000010001000100000000000000000000000000000000 g"
b1100110011000000000000000000000010001000100000000000000000000000010001000100000000000000000000000000000000 N"
b1100110011000000000000000000000010001000100000000000000000000000010001000100000000000000000000000000000000 a"
b110000000000000000000000 M"
b110000000000000000000000 d"
b101000 A
b10101010101 9
b10101010101 ("
b1000100010000000000000000000000001100110011000000000000000000000010001000100000000000000000000000010001000100000000000000000000000000000000 ]"
b10000 Q"
b0 @"
b0 _"
b0 b"
b0 R"
b110000000000000000000000 V"
b110000000000000000000000 c"
b0 P"
1?"
1H"
0X
b0 ^
b0 1"
b0 Q
b0 '"
b0 2"
1Y
b1100110011000000000010000010011 t
b1100110011000000000010000010011 z
b110100 5"
b110100 6"
b10100 7
b10100 >
b10100 f
b1000 R
b1000 b
b1000 l
b10101 [
b10101 o
b10101010101 r
b10101010101 %"
b0 p
b0 ."
b101 ;
b101 P
b101 q
b10000 T
b10000 W
b10000 }
b10001000100 U
b10001000100 F"
b10000 S
b10000 |
b10000 +"
b10000 0"
b10000 E"
1D"
b111 V
b111 ~
12
b1000 Z
b1000 ""
b1000 8"
b10001000100 #"
b10001000100 *"
b10001000100 /"
b10001000100 9"
b101 $"
b110100 E
b110100 3"
b110000 F
b110000 s
b110000 {
b110000 7"
b111 J
b111 M
b111 e
b10001000100 H
b10001000100 g
b10001000100 <"
b10 K
b100011 L
b1000 ;"
b1000 `
b1000 h
b10100 k
b10100 3
b10100 x
b100000000010101000100011 u
b100000000010101000100011 w
b1010100 ?
b1010100 4"
b1010100 B
b101100 @
b101100 C
b101100 v
b11011 .
1'
#1325
0'
